vehicle -8.498455 -2.0331726 0.00050900877 4.43184 2.0619726 1.7674036 -0.047744542 0.7535279
vehicle 14.677067 4.7368774 -1.1377047 4.6250834 2.0480835 1.7542812 -3.1205406 0.751201
bicycle 13.064709 9.685345 -1.5906371 1.9013793 1.0061959 1.6552364 -3.0370002 0.5989167
bicycle -15.094929 -11.338966 0.75847507 1.7180022 0.7777114 1.5654078 0.023487315 0.4003577
pedestrian -24.688505 0.4477005 0.2267965 0.71059567 0.69310653 1.7482532 3.0483637 0.3482896
